<?xml version="1.0" encoding="UTF-8"?>
<symbol version="7" name="Clock">
    <symboltype>BLOCK</symboltype>
    <timestamp>2011-10-25T21:7:2</timestamp>
    <pin polarity="Input" x="0" y="-32" name="CLKIN_IN" />
    <pin polarity="Output" x="464" y="224" name="CLKFX_OUT" />
    <graph>
        <attrtext style="alignment:BCENTER;fontsize:56;fontname:Arial" attrname="SymbolName" x="232" y="-264" type="symbol" />
        <attrtext style="fontsize:24;fontname:Arial" attrname="PinName" x="72" y="-32" type="pin CLKIN_IN" />
        <attrtext style="alignment:RIGHT;fontsize:24;fontname:Arial" attrname="PinName" x="392" y="224" type="pin CLKFX_OUT" />
        <line x2="464" y1="224" y2="224" x1="400" />
        <line x2="0" y1="-32" y2="-32" x1="64" />
        <rect width="336" x="64" y="-256" height="512" />
    </graph>
</symbol>
